 {
  "wording": {
    "title": "Agents publics : comment lever les blocages que vous rencontrez au quotidien ?",
    "question": "Agents publics : comment lever les blocages que vous rencontrez au quotidien ?",
    "metas": {
      "title": "Agents publics : comment lever les blocages que vous rencontrez au quotidien ?",
      "description": "Vous avez un avis sur le sujet ? Alors comme des milliers de citoyens participez à la consultation nationale Make.org : proposez vos idées, réagissez à celles des autres ! Les meilleures seront transformées en actions.",
      "picture": "https://uploads-ssl.webflow.com/59833d390a24e50001b873d8/5b977480cd07ff475b914214_default%20meta%20card%20il%20faut.png"
    }
  },
  "theme": {
    "color": "#ED2939",
    "gradient-start": "#8ADCD7",
    "gradient-end": "#367ABC",
    "footerFontColor": "black"
  },
  "consultationUrl": "https://make.org/#/FR/consultation/ditp/consultation",
  "aboutUrl": "https://about.make.org/about-ditp",
  "sequenceExtraSlidesWording": {
    "introCard": {
      "title": "Des milliers d'agents publics proposent des solutions.",
      "description": [
        "Prenez position sur ces solutions ou proposez les vôtres.",
        "Vos contributions seront restituées à la Direction Interministérielle de la Transformation Publique de manière anonyme."
      ]
    },
    "signUpCard": {
      "title": "Inscrivez vous pour enregistrer vos contributions",
      "nextCTA": "Non merci, je ne souhaite pas que mes contributions soient enregistrées"
    }
  },
  "sequenceExtraSlidesConfig": {
    "introCard":  {
      "customTitle": true,
      "customDescription": true,
      "partners": [
          {
            "name": "DITP",
            "imageUrl": "/images/operations/ditp/sequence/ditp.png"
          }
      ],
      "inPartnershipWith": false,
      "extraLogo": "/images/operations/ditp/sequence/sequence-intro-icon.png"
    },
    "pushProposal": {
      "extraLogo": "/images/operations/ditp/sequence/sequence-proposal-icon.png"
    },
    "signUpCard": {
      "customTitle": true,
      "customNextCTA": true
    },
    "finalCard": {
      "customTitle": false,
      "linkUrl": "https://make.org/#/FR/consultation/ditp/consultation",
      "withSharing": false
    }
  },
  "sequenceSignUpForm": {
    "firstName": true,
    "age": true,
    "job": true,
    "postalCode": true,
    "hiddenOptOut": true
  }
}
